['{"error_description":"The following product UPCs already exist : `3057640233913, `"}', {
  'product_uoms': [{
    'upc': '3057640100673',
    'uom': 'BOT',
    'uom_size': 1,
    'base_unit': True,
    'height': '',
    'width': '',
    'length': '',
    'product_content_unit': 'g',
    'product_net_quantity_of_content': '',
    'product_image': ''
  }, {
    'upc': '3057640233913',
    'uom': 'CAS',
    'uom_size': 24.0,
    'base_unit': False,
    'height': '',
    'width': '',
    'length': '',
    'product_content_unit': 'g',
    'product_net_quantity_of_content': '',
    'product_image': ''
  }]
}, '{"error_description":"The following product UPCs already exist : `18935005801118, `"}', {
  'product_uoms': [{
    'upc': '8935005801111',
    'uom': 'BOT',
    'uom_size': 1,
    'base_unit': True,
    'height': '',
    'width': '',
    'length': '',
    'product_content_unit': 'g',
    'product_net_quantity_of_content': '',
    'product_image': ''
  }, {
    'upc': '18935005801118',
    'uom': 'CAS',
    'uom_size': 24.0,
    'base_unit': False,
    'height': '',
    'width': '',
    'length': '',
    'product_content_unit': 'g',
    'product_net_quantity_of_content': '',
    'product_image': ''
  }]
}, '{"error_description":"The following product UPCs already exist : `18935005801132, `"}', {
  'product_uoms': [{
    'upc': '8935005801135',
    'uom': 'BOT',
    'uom_size': 1,
    'base_unit': True,
    'height': '',
    'width': '',
    'length': '',
    'product_content_unit': 'g',
    'product_net_quantity_of_content': '',
    'product_image': ''
  }, {
    'upc': '18935005801132',
    'uom': 'CAS',
    'uom_size': 24.0,
    'base_unit': False,
    'height': '',
    'width': '',
    'length': '',
    'product_content_unit': 'g',
    'product_net_quantity_of_content': '',
    'product_image': ''
  }]
}, '{"error_description":"The following product UPCs already exist : `18935005801019, `"}', {
  'product_uoms': [{
    'upc': '8935005801012',
    'uom': 'BOT',
    'uom_size': 1,
    'base_unit': True,
    'height': '',
    'width': '',
    'length': '',
    'product_content_unit': 'g',
    'product_net_quantity_of_content': '',
    'product_image': ''
  }, {
    'upc': '18935005801019',
    'uom': 'CAS',
    'uom_size': 12.0,
    'base_unit': False,
    'height': '',
    'width': '',
    'length': '',
    'product_content_unit': 'g',
    'product_net_quantity_of_content': '',
    'product_image': ''
  }]
}, '{"error_description":"UoM Id(s) do not exists `Box`"}', {
  'product_uoms': [{
    'upc': '75043490',
    'uom': 'PAK',
    'uom_size': 1,
    'base_unit': True,
    'height': '',
    'width': '',
    'length': '',
    'product_content_unit': 'g',
    'product_net_quantity_of_content': '',
    'product_image': ''
  }, {
    'upc': '7502230947955',
    'uom': 'Box',
    'uom_size': 40.0,
    'base_unit': False,
    'height': '',
    'width': '',
    'length': '',
    'product_content_unit': 'g',
    'product_net_quantity_of_content': '',
    'product_image': ''
  }]
}, '{"error_description":"UoM Id(s) do not exists `Box`"}', {
  'product_uoms': [{
    'upc': '75043476',
    'uom': 'PAK',
    'uom_size': 1,
    'base_unit': True,
    'height': '',
    'width': '',
    'length': '',
    'product_content_unit': 'g',
    'product_net_quantity_of_content': '',
    'product_image': ''
  }, {
    'upc': '7502230948006',
    'uom': 'Box',
    'uom_size': 40.0,
    'base_unit': False,
    'height': '',
    'width': '',
    'length': '',
    'product_content_unit': 'g',
    'product_net_quantity_of_content': '',
    'product_image': ''
  }]
}, '{"error_description":"The following product UPCs already exist : `9311755201095, `"}', {
  'product_uoms': [{
    'upc': '9311755201095',
    'uom': 'EA',
    'uom_size': 1,
    'base_unit': True,
    'height': '',
    'width': '',
    'length': '',
    'product_content_unit': 'g',
    'product_net_quantity_of_content': '',
    'product_image': ''
  }]
}, '{"error_description":"The following product UPCs already exist : `9311755214927, `"}', {
  'product_uoms': [{
    'upc': '9311755214927',
    'uom': 'EA',
    'uom_size': 1,
    'base_unit': True,
    'height': '',
    'width': '',
    'length': '',
    'product_content_unit': 'g',
    'product_net_quantity_of_content': '',
    'product_image': ''
  }]
}, '{"error_description":"The following product UPCs already exist : `4711577029719, `"}', {
  'product_uoms': [{
    'upc': '4711577029719',
    'uom': 'EA',
    'uom_size': 1,
    'base_unit': True,
    'height': '',
    'width': '',
    'length': '',
    'product_content_unit': 'g',
    'product_net_quantity_of_content': '',
    'product_image': ''
  }]
}, '{"error_description":"The following product UPCs already exist : `4711577029702, `"}', {
  'product_uoms': [{
    'upc': '4711577029702',
    'uom': 'EA',
    'uom_size': 1,
    'base_unit': True,
    'height': '',
    'width': '',
    'length': '',
    'product_content_unit': 'g',
    'product_net_quantity_of_content': '',
    'product_image': ''
  }]
}, '{"error_description":"The following product UPCs already exist : `4711577029696, `"}', {
  'product_uoms': [{
    'upc': '4711577029696',
    'uom': 'EA',
    'uom_size': 1,
    'base_unit': True,
    'height': '',
    'width': '',
    'length': '',
    'product_content_unit': 'g',
    'product_net_quantity_of_content': '',
    'product_image': ''
  }]
}, '{"error_description":"The following product UPCs already exist : `4711678071440, `"}', {
  'product_uoms': [{
    'upc': '4711678071440',
    'uom': 'EA',
    'uom_size': 1,
    'base_unit': True,
    'height': '',
    'width': '',
    'length': '',
    'product_content_unit': 'g',
    'product_net_quantity_of_content': '',
    'product_image': ''
  }]
}, '{"error_description":"The following product UPCs already exist : `4711678071174, `"}', {
  'product_uoms': [{
    'upc': '4711678071174',
    'uom': 'EA',
    'uom_size': 1,
    'base_unit': True,
    'height': '',
    'width': '',
    'length': '',
    'product_content_unit': 'g',
    'product_net_quantity_of_content': '',
    'product_image': ''
  }]
}, '{"error_description":"The following product UPCs already exist : `884851023698, `"}', {
  'product_uoms': [{
    'upc': '884851023698',
    'uom': 'EA',
    'uom_size': 1,
    'base_unit': True,
    'height': '',
    'width': '',
    'length': '',
    'product_content_unit': 'g',
    'product_net_quantity_of_content': '',
    'product_image': ''
  }]
}, '{"error_description":"The following product UPCs already exist : `884851023681, `"}', {
  'product_uoms': [{
    'upc': '884851023681',
    'uom': 'EA',
    'uom_size': 1,
    'base_unit': True,
    'height': '',
    'width': '',
    'length': '',
    'product_content_unit': 'g',
    'product_net_quantity_of_content': '',
    'product_image': ''
  }]
}, '{"error_description":"The following product UPCs already exist : `884851023704, `"}', {
  'product_uoms': [{
    'upc': '884851023704',
    'uom': 'EA',
    'uom_size': 1,
    'base_unit': True,
    'height': '',
    'width': '',
    'length': '',
    'product_content_unit': 'g',
    'product_net_quantity_of_content': '',
    'product_image': ''
  }]
}, '{"error_description":"The following product UPCs already exist : `884851023728, `"}', {
  'product_uoms': [{
    'upc': '884851023728',
    'uom': 'EA',
    'uom_size': 1,
    'base_unit': True,
    'height': '',
    'width': '',
    'length': '',
    'product_content_unit': 'g',
    'product_net_quantity_of_content': '',
    'product_image': ''
  }]
}, '{"error_description":"The following product UPCs already exist : `72512197646, `"}', {
  'product_uoms': [{
    'upc': '72512197646',
    'uom': 'EA',
    'uom_size': 1,
    'base_unit': True,
    'height': '',
    'width': '',
    'length': '',
    'product_content_unit': 'g',
    'product_net_quantity_of_content': '',
    'product_image': ''
  }]
}, '{"error_description":"There are duplicated UPC in product UOMs : `8850387004670`"}', {
  'product_uoms': [{
    'upc': '8850387004670',
    'uom': 'BAG',
    'uom_size': 1,
    'base_unit': True,
    'height': '',
    'width': '',
    'length': '',
    'product_content_unit': 'g',
    'product_net_quantity_of_content': '',
    'product_image': ''
  }, {
    'upc': '8850387004670',
    'uom': 'CAS',
    'uom_size': 30.0,
    'base_unit': False,
    'height': '',
    'width': '',
    'length': '',
    'product_content_unit': 'g',
    'product_net_quantity_of_content': '',
    'product_image': ''
  }]
}, '{"error_description":"UoM Id(s) do not exists `PaK`"}', {
  'product_uoms': [{
    'upc': '8936049691539',
    'uom': 'PaK',
    'uom_size': 1,
    'base_unit': True,
    'height': '',
    'width': '',
    'length': '',
    'product_content_unit': 'g',
    'product_net_quantity_of_content': '',
    'product_image': ''
  }]
}, '{"error_description":"There are duplicated UPC in product UOMs : `8934841900613`"}', {
  'product_uoms': [{
    'upc': '8934841900613',
    'uom': 'BOX',
    'uom_size': 1,
    'base_unit': True,
    'height': '',
    'width': '',
    'length': '',
    'product_content_unit': 'g',
    'product_net_quantity_of_content': '',
    'product_image': ''
  }, {
    'upc': '8934841900613',
    'uom': 'CAS',
    'uom_size': 48.0,
    'base_unit': False,
    'height': '',
    'width': '',
    'length': '',
    'product_content_unit': 'g',
    'product_net_quantity_of_content': '',
    'product_image': ''
  }]
}, '{"error_description":"There are duplicated UPC in product UOMs : `8934841900286`"}', {
  'product_uoms': [{
    'upc': '8934841900286',
    'uom': 'BOX',
    'uom_size': 1,
    'base_unit': True,
    'height': '',
    'width': '',
    'length': '',
    'product_content_unit': 'g',
    'product_net_quantity_of_content': '',
    'product_image': ''
  }, {
    'upc': '8934841900286',
    'uom': 'CAS',
    'uom_size': 48.0,
    'base_unit': False,
    'height': '',
    'width': '',
    'length': '',
    'product_content_unit': 'g',
    'product_net_quantity_of_content': '',
    'product_image': ''
  }]
}, '{"error_description":"There are duplicated UPC in product UOMs : `8934841901641`"}', {
  'product_uoms': [{
    'upc': '8934841901641',
    'uom': 'BOX',
    'uom_size': 1,
    'base_unit': True,
    'height': '',
    'width': '',
    'length': '',
    'product_content_unit': 'g',
    'product_net_quantity_of_content': '',
    'product_image': ''
  }, {
    'upc': '8934841901641',
    'uom': 'CAS',
    'uom_size': 48.0,
    'base_unit': False,
    'height': '',
    'width': '',
    'length': '',
    'product_content_unit': 'g',
    'product_net_quantity_of_content': '',
    'product_image': ''
  }]
}, '{"error_description":"There are duplicated UPC in product UOMs : `8934841900446`"}', {
  'product_uoms': [{
    'upc': '8934841900446',
    'uom': 'BOX',
    'uom_size': 1,
    'base_unit': True,
    'height': '',
    'width': '',
    'length': '',
    'product_content_unit': 'g',
    'product_net_quantity_of_content': '',
    'product_image': ''
  }, {
    'upc': '8934841900446',
    'uom': 'CAS',
    'uom_size': 48.0,
    'base_unit': False,
    'height': '',
    'width': '',
    'length': '',
    'product_content_unit': 'g',
    'product_net_quantity_of_content': '',
    'product_image': ''
  }]
}, '{"error_description":"There are duplicated UPC in product UOMs : `8934841901795`"}', {
  'product_uoms': [{
    'upc': '8934841901795',
    'uom': 'BOT',
    'uom_size': 1,
    'base_unit': True,
    'height': '',
    'width': '',
    'length': '',
    'product_content_unit': 'g',
    'product_net_quantity_of_content': '',
    'product_image': ''
  }, {
    'upc': '8934841901795',
    'uom': 'CAS',
    'uom_size': 24.0,
    'base_unit': False,
    'height': '',
    'width': '',
    'length': '',
    'product_content_unit': 'g',
    'product_net_quantity_of_content': '',
    'product_image': ''
  }]
}, '{"error_description":"There are duplicated UPC in product UOMs : `8934841901801`"}', {
  'product_uoms': [{
    'upc': '8934841901801',
    'uom': 'BOT',
    'uom_size': 1,
    'base_unit': True,
    'height': '',
    'width': '',
    'length': '',
    'product_content_unit': 'g',
    'product_net_quantity_of_content': '',
    'product_image': ''
  }, {
    'upc': '8934841901801',
    'uom': 'CAS',
    'uom_size': 24.0,
    'base_unit': False,
    'height': '',
    'width': '',
    'length': '',
    'product_content_unit': 'g',
    'product_net_quantity_of_content': '',
    'product_image': ''
  }]
}, '{"error_description":"There are duplicated UPC in product UOMs : `8934841901467`"}', {
  'product_uoms': [{
    'upc': '8934841901467',
    'uom': 'BOX',
    'uom_size': 1,
    'base_unit': True,
    'height': '',
    'width': '',
    'length': '',
    'product_content_unit': 'g',
    'product_net_quantity_of_content': '',
    'product_image': ''
  }, {
    'upc': '8934841901467',
    'uom': 'CAS',
    'uom_size': 48.0,
    'base_unit': False,
    'height': '',
    'width': '',
    'length': '',
    'product_content_unit': 'g',
    'product_net_quantity_of_content': '',
    'product_image': ''
  }]
}, '{"error_description":"There are duplicated UPC in product UOMs : `8934841901474`"}', {
  'product_uoms': [{
    'upc': '8934841901474',
    'uom': 'BOX',
    'uom_size': 1,
    'base_unit': True,
    'height': '',
    'width': '',
    'length': '',
    'product_content_unit': 'g',
    'product_net_quantity_of_content': '',
    'product_image': ''
  }, {
    'upc': '8934841901474',
    'uom': 'CAS',
    'uom_size': 48.0,
    'base_unit': False,
    'height': '',
    'width': '',
    'length': '',
    'product_content_unit': 'g',
    'product_net_quantity_of_content': '',
    'product_image': ''
  }]
}, '{"error_description":"There are duplicated UPC in product UOMs : `8934841396102`"}', {
  'product_uoms': [{
    'upc': '8934841396102',
    'uom': 'BOX',
    'uom_size': 1,
    'base_unit': True,
    'height': '',
    'width': '',
    'length': '',
    'product_content_unit': 'g',
    'product_net_quantity_of_content': '',
    'product_image': ''
  }, {
    'upc': '8934841396102',
    'uom': 'CAS',
    'uom_size': 48.0,
    'base_unit': False,
    'height': '',
    'width': '',
    'length': '',
    'product_content_unit': 'g',
    'product_net_quantity_of_content': '',
    'product_image': ''
  }]
}, '{"error_description":"There are duplicated UPC in product UOMs : `8934841901856`"}', {
  'product_uoms': [{
    'upc': '8934841901856',
    'uom': 'BOX',
    'uom_size': 1,
    'base_unit': True,
    'height': '',
    'width': '',
    'length': '',
    'product_content_unit': 'g',
    'product_net_quantity_of_content': '',
    'product_image': ''
  }, {
    'upc': '8934841901856',
    'uom': 'CAS',
    'uom_size': 48.0,
    'base_unit': False,
    'height': '',
    'width': '',
    'length': '',
    'product_content_unit': 'g',
    'product_net_quantity_of_content': '',
    'product_image': ''
  }]
}, '{"error_description":"There are duplicated UPC in product UOMs : `8934841901870`"}', {
  'product_uoms': [{
    'upc': '8934841901870',
    'uom': 'BOX',
    'uom_size': 1,
    'base_unit': True,
    'height': '',
    'width': '',
    'length': '',
    'product_content_unit': 'g',
    'product_net_quantity_of_content': '',
    'product_image': ''
  }, {
    'upc': '8934841901870',
    'uom': 'CAS',
    'uom_size': 48.0,
    'base_unit': False,
    'height': '',
    'width': '',
    'length': '',
    'product_content_unit': 'g',
    'product_net_quantity_of_content': '',
    'product_image': ''
  }]
}, '{"error_description":"There are duplicated UPC in product UOMs : `8934841901818`"}', {
  'product_uoms': [{
    'upc': '8934841901818',
    'uom': 'BOX',
    'uom_size': 1,
    'base_unit': True,
    'height': '',
    'width': '',
    'length': '',
    'product_content_unit': 'g',
    'product_net_quantity_of_content': '',
    'product_image': ''
  }, {
    'upc': '8934841901818',
    'uom': 'CAS',
    'uom_size': 48.0,
    'base_unit': False,
    'height': '',
    'width': '',
    'length': '',
    'product_content_unit': 'g',
    'product_net_quantity_of_content': '',
    'product_image': ''
  }]
}, '{"error_description":"There are duplicated UPC in product UOMs : `8934841901931`"}', {
  'product_uoms': [{
    'upc': '8934841901931',
    'uom': 'PAK',
    'uom_size': 1,
    'base_unit': True,
    'height': '',
    'width': '',
    'length': '',
    'product_content_unit': 'g',
    'product_net_quantity_of_content': '',
    'product_image': ''
  }, {
    'upc': '8934841901931',
    'uom': 'CAS',
    'uom_size': 48.0,
    'base_unit': False,
    'height': '',
    'width': '',
    'length': '',
    'product_content_unit': 'g',
    'product_net_quantity_of_content': '',
    'product_image': ''
  }]
}, '{"error_description":"There are duplicated UPC in product UOMs : `8934841901955`"}', {
  'product_uoms': [{
    'upc': '8934841901955',
    'uom': 'PAK',
    'uom_size': 1,
    'base_unit': True,
    'height': '',
    'width': '',
    'length': '',
    'product_content_unit': 'g',
    'product_net_quantity_of_content': '',
    'product_image': ''
  }, {
    'upc': '8934841901955',
    'uom': 'CAS',
    'uom_size': 48.0,
    'base_unit': False,
    'height': '',
    'width': '',
    'length': '',
    'product_content_unit': 'g',
    'product_net_quantity_of_content': '',
    'product_image': ''
  }]
}, '{"error_description":"UoM Id(s) do not exists `Pak`"}', {
  'product_uoms': [{
    'upc': '8935001712190',
    'uom': 'Pak',
    'uom_size': 1,
    'base_unit': True,
    'height': '',
    'width': '',
    'length': '',
    'product_content_unit': 'g',
    'product_net_quantity_of_content': '',
    'product_image': ''
  }]
}, '{"error_description":"UoM Id(s) do not exists `Pak`"}', {
  'product_uoms': [{
    'upc': '93682978',
    'uom': 'Pak',
    'uom_size': 1,
    'base_unit': True,
    'height': '',
    'width': '',
    'length': '',
    'product_content_unit': 'g',
    'product_net_quantity_of_content': '',
    'product_image': ''
  }]
}, '{"error_description":"The following product UPCs already exist : `8935217404025, `"}', {
  'product_uoms': [{
    'upc': '8935217404025',
    'uom': 'BOX',
    'uom_size': 1,
    'base_unit': True,
    'height': '',
    'width': '',
    'length': '',
    'product_content_unit': 'g',
    'product_net_quantity_of_content': '',
    'product_image': ''
  }, {
    'upc': '18935217404022',
    'uom': 'CAS',
    'uom_size': 12.0,
    'base_unit': False,
    'height': '',
    'width': '',
    'length': '',
    'product_content_unit': 'g',
    'product_net_quantity_of_content': '',
    'product_image': ''
  }]
}, '{"error_description":"UoM Id(s) do not exists `Box`"}', {
  'product_uoms': [{
    'upc': '3498505',
    'uom': 'Box',
    'uom_size': 1,
    'base_unit': True,
    'height': '',
    'width': '',
    'length': '',
    'product_content_unit': 'g',
    'product_net_quantity_of_content': '',
    'product_image': ''
  }]
}, '{"error_description":"UoM Id(s) do not exists `PaK`"}', {
  'product_uoms': [{
    'upc': '8855444007793',
    'uom': 'PaK',
    'uom_size': 1,
    'base_unit': True,
    'height': '',
    'width': '',
    'length': '',
    'product_content_unit': 'g',
    'product_net_quantity_of_content': '',
    'product_image': ''
  }]
}, '{"error_description":"UoM Id(s) do not exists `PaK`"}', {
  'product_uoms': [{
    'upc': '8855444007120',
    'uom': 'PaK',
    'uom_size': 1,
    'base_unit': True,
    'height': '',
    'width': '',
    'length': '',
    'product_content_unit': 'g',
    'product_net_quantity_of_content': '',
    'product_image': ''
  }]
}, '{"error_description":"UoM Id(s) do not exists `PaK`"}', {
  'product_uoms': [{
    'upc': '8855444007212',
    'uom': 'PaK',
    'uom_size': 1,
    'base_unit': True,
    'height': '',
    'width': '',
    'length': '',
    'product_content_unit': 'g',
    'product_net_quantity_of_content': '',
    'product_image': ''
  }]
}, '{"error_description":"The following product UPCs already exist : `Need SSV UPC, `"}', {
  'product_uoms': [{
    'upc': '769828221591',
    'uom': 'CAR',
    'uom_size': 1,
    'base_unit': True,
    'height': '',
    'width': '',
    'length': '',
    'product_content_unit': 'g',
    'product_net_quantity_of_content': '',
    'product_image': ''
  }, {
    'upc': 'Need SSV UPC',
    'uom': 'CAS',
    'uom_size': 24.0,
    'base_unit': False,
    'height': '',
    'width': '',
    'length': '',
    'product_content_unit': 'g',
    'product_net_quantity_of_content': '',
    'product_image': ''
  }]
}, '{"error_description":"The following product UPCs already exist : `Need SSV UPC, `"}', {
  'product_uoms': [{
    'upc': '8801104940146',
    'uom': 'CAR',
    'uom_size': 1,
    'base_unit': True,
    'height': '',
    'width': '',
    'length': '',
    'product_content_unit': 'g',
    'product_net_quantity_of_content': '',
    'product_image': ''
  }, {
    'upc': 'Need SSV UPC',
    'uom': 'CAS',
    'uom_size': 24.0,
    'base_unit': False,
    'height': '',
    'width': '',
    'length': '',
    'product_content_unit': 'g',
    'product_net_quantity_of_content': '',
    'product_image': ''
  }]
}, '{"error_description":"The following product UPCs already exist : `9313312181314, `"}', {
  'product_uoms': [{
    'upc': '9313312181314',
    'uom': 'SET',
    'uom_size': 1,
    'base_unit': True,
    'height': '',
    'width': '',
    'length': '',
    'product_content_unit': 'g',
    'product_net_quantity_of_content': '',
    'product_image': ''
  }]
}]