0,['nestlé']
1,['nestlé']
2,['nestlé']
3,['nestlé']
4,['nestlé']
5,['nestlé']
6,['nestlé']
7,['nestlé']
8,['nestlé']
9,['tulip']
10,['tulip']
11,['tulip']
12,"['ligo', 'diligo']"
13,"['hormel foods corporation', 'vovos corporation', 'lion corporation']"
14,"['hormel foods corporation', 'vovos corporation', 'lion corporation']"
15,"['hormel foods corporation', 'vovos corporation', 'lion corporation']"
16,"['yamamori', 'campari']"
17,"['yamamori', 'campari']"
18,"['yamamori', 'campari']"
19,"['yamamori', 'campari']"
20,"['yamamori', 'campari']"
21,"['công ty cổ phần thực phẩm cholimex', 'công ty cổ phần thực phẩm á châu', 'công ty cổ phần thực phẩm quốc tế']"
22,"['công ty cổ phần thực phẩm cholimex', 'công ty cổ phần thực phẩm á châu', 'công ty cổ phần thực phẩm quốc tế']"
23,"['công ty cổ phần thực phẩm cholimex', 'công ty cổ phần thực phẩm á châu', 'công ty cổ phần thực phẩm quốc tế']"
24,"['công ty cổ phần thực phẩm cholimex', 'công ty cổ phần thực phẩm á châu', 'công ty cổ phần thực phẩm quốc tế']"
25,"['công ty tnhh quốc tế unilever việt nam', 'công ty tnhh quốc tế nhật việt anh', 'công ty tnhh fumakilla việt nam']"
26,"['công ty tnhh mtv thực phẩm tinh nguyên', 'công ty tthh thực phẩm dinh dưỡng xuân an', 'công ty tnhh dv tm phan thị']"
27,['công ty cp đường biên hòa']
28,"['mcilhenny company', 'the hershey company', 'haagen dazs company']"
29,"['mccormick foods australia pty, ltd', 'parmalat australia pty ltd', 'galderma australia pty ltd']"
30,"['mccormick foods australia pty, ltd', 'parmalat australia pty ltd', 'galderma australia pty ltd']"
31,['s.g.m']
32,['s.g.m']
33,"['công ty tnhh thực phẩm asuzac', 'công ty tnhh thực phẩm sen việt', 'công ty tnhh thực phẩm bông mai']"
34,"['công ty tnhh thực phẩm asuzac', 'công ty tnhh thực phẩm sen việt', 'công ty tnhh thực phẩm bông mai']"
35,"['công ty tnhh thực phẩm asuzac', 'công ty tnhh thực phẩm sen việt', 'công ty tnhh thực phẩm bông mai']"
36,"['nam phương', 'nam chow', 'aik cheong']"
37,"['nam phương', 'nam chow', 'aik cheong']"
38,"['nam phương', 'nam chow', 'aik cheong']"
39,"['nam phương', 'nam chow', 'aik cheong']"
40,"['nam phương', 'nam chow', 'aik cheong']"
41,['acecook']
42,['acecook']
43,['acecook']
44,['fraser & neave limited']
45,['fraser & neave limited']
46,"['pepsico', 'pepsico food']"
47,"['pepsico', 'pepsico food']"
48,"['pepsico', 'pepsico food']"
49,"['pepsico', 'pepsico food']"
50,"['cty tnhh bia & ngk heineken viet nam', 'cty tnhh cgp viet nam', 'cty tnhh wrigley việt nam']"
51,"['cty tnhh bia & ngk heineken viet nam', 'cty tnhh cgp viet nam', 'cty tnhh wrigley việt nam']"
52,"['cty tnhh bia & ngk heineken viet nam', 'cty tnhh cgp viet nam', 'cty tnhh wrigley việt nam']"
53,['chi nhánh công ty tnhh bia san miguel việt nam tp.hcm']
54,['chi nhánh công ty tnhh bia san miguel việt nam tp.hcm']
55,['chi nhánh công ty tnhh bia san miguel việt nam tp.hcm']
56,"['cty tnhh bia & ngk heineken viet nam', 'cty tnhh cgp viet nam', 'cty tnhh wrigley việt nam']"
57,"['cty tnhh bia & ngk heineken viet nam', 'cty tnhh cgp viet nam', 'cty tnhh wrigley việt nam']"
58,['acecook']
59,['coca-cola']
60,['coca-cola']
61,['coca-cola']
62,['coca-cola']
63,['coca-cola']
64,['coca-cola']
65,['acecook']
66,['acecook']
67,"['công ty tnhh công nghệ thực phẩm châu á', 'công ty tnhh công nghệ thực phẩm miko', 'công ty tnhh thực phẩm asuzac']"
68,"['công ty tnhh công nghệ thực phẩm châu á', 'công ty tnhh công nghệ thực phẩm miko', 'công ty tnhh thực phẩm asuzac']"
69,"['công ty tnhh công nghệ thực phẩm châu á', 'công ty tnhh công nghệ thực phẩm miko', 'công ty tnhh thực phẩm asuzac']"
70,['acecook']
71,['acecook']
72,['acecook']
73,['acecook']
74,['acecook']
75,['acecook']
76,['acecook']
77,"['pepsico', 'pepsico food']"
78,"['pepsico', 'pepsico food']"
79,"['pepsico', 'pepsico food']"
80,"['pepsico', 'pepsico food']"
81,"['pepsico', 'pepsico food']"
82,['coca-cola']
83,"['pepsico', 'pepsico food']"
84,['les verger du mekong']
85,['les verger du mekong']
86,['nestlé']
87,['nestlé']
88,['coca-cola']
89,"['korea food trading co., ltd', 'blue ocean food and drinks co., ltd.', 'kcg corporation co.,ltd']"
90,"['công ty cổ phần thực phẩm quốc tế', 'công ty cổ phần thực phẩm cholimex', 'công ty cổ phần thực phẩm á châu']"
91,"['công ty cổ phần thực phẩm quốc tế', 'công ty cổ phần thực phẩm cholimex', 'công ty cổ phần thực phẩm á châu']"
92,"['công ty cổ phần thực phẩm quốc tế', 'công ty cổ phần thực phẩm cholimex', 'công ty cổ phần thực phẩm á châu']"
93,"['công ty tnhh dinh dưỡng otsuka thăng', 'công ty tnhh cánh đồng vàng', 'công ty tthh thực phẩm dinh dưỡng xuân an']"
94,['công ty tnhh nước giải khát bluesea']
95,['evian volvic source']
96,"['công ty cổ phần thực phẩm quốc tế', 'công ty cổ phần thực phẩm cholimex', 'công ty cổ phần thực phẩm á châu']"
97,"['công ty cổ phần thực phẩm quốc tế', 'công ty cổ phần thực phẩm cholimex', 'công ty cổ phần thực phẩm á châu']"
98,"['công ty cổ phần thực phẩm quốc tế', 'công ty cổ phần thực phẩm cholimex', 'công ty cổ phần thực phẩm á châu']"
99,"['korea food trading co., ltd', 'blue ocean food and drinks co., ltd.', 'kcg corporation co.,ltd']"
100,"['vinamilk', 'vital']"
101,"['cty tnhh bia & ngk heineken viet nam', 'cty tnhh cgp viet nam', 'cty tnhh wrigley việt nam']"
102,"['cty tnhh bia & ngk heineken viet nam', 'cty tnhh cgp viet nam', 'cty tnhh wrigley việt nam']"
103,"['công ty cổ phần thực phẩm quốc tế', 'công ty cổ phần thực phẩm cholimex', 'công ty cổ phần thực phẩm á châu']"
104,['coca-cola']
105,['coca-cola']
106,['coca-cola']
107,"['pepsico', 'pepsico food']"
108,"['pepsico', 'pepsico food']"
109,"['pepsico', 'pepsico food']"
110,['nestlé']
111,['coca-cola']
112,['coca-cola']
113,"['pepsico', 'pepsico food']"
114,"['pepsico', 'pepsico food']"
115,['yhs (singapore)']
116,['acecook']
117,['acecook']
118,['acecook']
119,"['công ty cổ phần thực phẩm quốc tế', 'công ty cổ phần thực phẩm cholimex', 'công ty cổ phần thực phẩm á châu']"
120,['yhs (singapore)']
121,"['vinamilk', 'vital']"
122,"['công ty cổ phần thực phẩm quốc tế', 'công ty cổ phần thực phẩm cholimex', 'công ty cổ phần thực phẩm á châu']"
123,"['công ty cổ phần thực phẩm quốc tế', 'công ty cổ phần thực phẩm cholimex', 'công ty cổ phần thực phẩm á châu']"
124,"['pepsico', 'pepsico food']"
125,"['casella wines', 'dalat wine', 'constellation wine u.s']"
126,"['casella wines', 'dalat wine', 'constellation wine u.s']"
127,"['casella wines', 'dalat wine', 'constellation wine u.s']"
128,"['vifon', 'ribon', 'orion']"
129,"['vifon', 'ribon', 'orion']"
130,"['vifon', 'ribon', 'orion']"
131,"['vifon', 'ribon', 'orion']"
132,['carabao']
133,"['taisho', 'tanesho', 'tai sun']"
134,"['minh đức', 'minh thư']"
135,"['minh đức', 'minh thư']"
136,"['minh đức', 'minh thư']"
137,"['itoen', 'vifon', 'ribon']"
138,"[""welch's""]"
139,"[""welch's""]"
140,['công ty cp xuất nhập khẩu bến tre']
141,['công ty cp xuất nhập khẩu bến tre']
142,['công ty cp xuất nhập khẩu bến tre']
143,"['indofood', 'marinfood', 'nico foods']"
144,"['thai president foods', 'uni president', 'thai victor food']"
145,"['nongshim food co.,ltd', 'hanil food co.,ltd', 'gaemi food co.,ltd']"
146,"['nongshim food co.,ltd', 'hanil food co.,ltd', 'gaemi food co.,ltd']"
147,"['samyang food co.,ltd', 'hanil food co.,ltd', 'sempio food co.,ltd']"
148,"['samyang food co.,ltd', 'hanil food co.,ltd', 'sempio food co.,ltd']"
149,"['samyang food co.,ltd', 'hanil food co.,ltd', 'sempio food co.,ltd']"
150,[]
151,[]
152,"['del monte', 'dentyne']"
153,"['công ty tnhh nautilus food (việt nam)', 'công ty tnhh fumakilla việt nam', ""công ty tnhh l'oreal việt nam""]"
154,"['thai corp', 'thai victor food']"
155,"['thai corp', 'thai victor food']"
156,"['công ty tnhh nautilus food (việt nam)', 'công ty tnhh fumakilla việt nam', ""công ty tnhh l'oreal việt nam""]"
157,"['công ty tnhh nautilus food (việt nam)', 'công ty tnhh fumakilla việt nam', ""công ty tnhh l'oreal việt nam""]"
158,"['công ty tnhh sx-kd-tm thực phẩm tuyền ký', 'công ty tnhh mtv thực phẩm tinh nguyên', 'công ty tnhh thực phẩm sen việt']"
159,"['công ty tnhh sx-kd-tm thực phẩm tuyền ký', 'công ty tnhh mtv thực phẩm tinh nguyên', 'công ty tnhh thực phẩm sen việt']"
160,"['công ty tnhh sx-kd-tm thực phẩm tuyền ký', 'công ty tnhh mtv thực phẩm tinh nguyên', 'công ty tnhh thực phẩm sen việt']"
161,"['công ty tnhh sx-kd-tm thực phẩm tuyền ký', 'công ty tnhh mtv thực phẩm tinh nguyên', 'công ty tnhh thực phẩm sen việt']"
162,"['công ty tnhh thương mại - sản xuất hải nam', 'công ty tnhh thương mại sản xuất dịch vụ đỉnh việt', 'công ty tnhh fumakilla việt nam']"
163,"['công ty tnhh thương mại - sản xuất hải nam', 'công ty tnhh thương mại sản xuất dịch vụ đỉnh việt', 'công ty tnhh fumakilla việt nam']"
164,['thai agri foods public co.']
165,['dole asia holding']
166,['thai agri foods public co.']
167,"['del monte', 'dentyne']"
168,"['aceites agro sevilla, s.a.u']"
169,"['aceites agro sevilla, s.a.u']"
170,['wilmart']
171,['wilmart']
172,"['công ty tnhh phân phối gỗ đỏ', 'công ty tnhh phân phối tiên tiến', 'công ty tnhh an ti']"
173,"['công ty tnhh phân phối gỗ đỏ', 'công ty tnhh phân phối tiên tiến', 'công ty tnhh an ti']"
174,"['mcilhenny company', 'the hershey company', 'haagen dazs company']"
175,"['dh foods', 'dan-d foods', 'sg food']"
176,"['dh foods', 'dan-d foods', 'sg food']"
177,['wilmart']
178,['wilmart']
179,['wilmart']
180,['acecook']
181,"['công ty cổ phần sài gòn food', 'công ty tnhh sài gon vewong']"
182,"['công ty cổ phần sài gòn food', 'công ty tnhh sài gon vewong']"
183,"['công ty cổ phần sài gòn food', 'công ty tnhh sài gon vewong']"
184,"['công ty cổ phần thực phẩm á châu', 'công ty cổ phần thực phẩm cholimex', 'công ty cổ phần thực phẩm quốc tế']"
185,"['công ty cổ phần thực phẩm á châu', 'công ty cổ phần thực phẩm cholimex', 'công ty cổ phần thực phẩm quốc tế']"
186,"['công ty cổ phần thực phẩm á châu', 'công ty cổ phần thực phẩm cholimex', 'công ty cổ phần thực phẩm quốc tế']"
187,"['công ty cổ phần thực phẩm á châu', 'công ty cổ phần thực phẩm cholimex', 'công ty cổ phần thực phẩm quốc tế']"
188,"['công ty tnhh mtv thái kiên', 'công ty tnhh mtv đầu tư thái anh', 'công ty tnhh an ti']"
189,"['công ty tnhh mtv thái kiên', 'công ty tnhh mtv đầu tư thái anh', 'công ty tnhh an ti']"
190,['nestlé']
191,['nestlé']
192,['nestlé']
193,"['công ty cổ phần tập đoàn trung nguyên', 'công ty cổ phần ca cao đông dương']"
194,"['công ty cổ phần tập đoàn trung nguyên', 'công ty cổ phần ca cao đông dương']"
195,"['công ty cổ phần tập đoàn trung nguyên', 'công ty cổ phần ca cao đông dương']"
196,"['công ty cổ phần tập đoàn trung nguyên', 'công ty cổ phần ca cao đông dương']"
197,"['công ty cổ phần tập đoàn trung nguyên', 'công ty cổ phần ca cao đông dương']"
198,"['công ty cổ phần ca cao đông dương', 'công ty cổ phần tập đoàn trung nguyên']"
199,"['công ty cổ phần ca cao đông dương', 'công ty cổ phần tập đoàn trung nguyên']"
200,['anheuser-busch inbev']
201,['anheuser-busch inbev']
202,['anheuser-busch inbev']
203,['anheuser-busch inbev']
204,['anheuser-busch inbev']
205,['camigo los']
206,"['okunomatsu sake brewery', 'miyasaka brewery']"
207,"['shirayuri winery', 'shirayuri winery']"
208,"['okunomatsu sake brewery', 'miyasaka brewery']"
209,"['takara shuzo', 'kagura shuzo']"
210,['pavo\xa0real winery']
211,['baron philippe de rothschild']
212,['accolade wines australia limited']
213,['berri estates winery']
214,['baron philippe de rothschild']
215,"['casella wines', 'dalat wine', 'constellation wine u.s']"
216,"['barton&guestier', 'barton & guestier sas']"
217,['accolade wines australia limited']
218,['baron philippe de rothschild']
219,['baron philippe de rothschild']
220,['francois martenot sas']
221,['bacio della luna spumanti']
222,['vidal- fleury']
223,"['công ty tnhh quốc tế nhật việt anh', 'công ty tnhh quốc tế unilever việt nam', 'công ty tnhh mtv đầu tư thái anh']"
224,['coca-cola']
225,"['vinamilk', 'vital']"
226,"['cty tnhh bia & ngk heineken viet nam', 'cty tnhh cgp viet nam', 'cty tnhh wrigley việt nam']"
227,['coca-cola']
228,['coca-cola']
229,['coca-cola']
230,['coca-cola']
231,"['công ty cổ phần thực phẩm quốc tế', 'công ty cổ phần thực phẩm cholimex', 'công ty cổ phần thực phẩm á châu']"
232,"['pepsico', 'pepsico food']"
233,"['pepsico', 'pepsico food']"
234,"['pepsico', 'pepsico food']"
235,['coca-cola']
236,['liwayway']
237,['liwayway']
238,"['masan', 'mayan', '3m japan']"
239,"['pepsico', 'pepsico food']"
240,['coca-cola']
241,"['pepsico', 'pepsico food']"
242,"['pepsico', 'pepsico food']"
243,"['pepsico', 'pepsico food']"
244,"['pepsico', 'pepsico food']"
245,['les verger du mekong']
246,"['vinamilk', 'vital']"
247,"['choke mahachai beverage co., ltd', 'japan sangaria beverage co., ltd.', 'p&p food and beverage co. ltd']"
248,"['choke mahachai beverage co., ltd', 'japan sangaria beverage co., ltd.', 'p&p food and beverage co. ltd']"
249,"['choke mahachai beverage co., ltd', 'japan sangaria beverage co., ltd.', 'p&p food and beverage co. ltd']"
250,"['vinamilk', 'vital']"
251,"['pepsico', 'pepsico food']"
252,"['food valley co., ltd', 'tailloon balloon co., ltd', 'dong il co., ltd']"
253,"['food valley co., ltd', 'tailloon balloon co., ltd', 'dong il co., ltd']"
254,"['korea food trading co., ltd', 'blue ocean food and drinks co., ltd.', 'kcg corporation co.,ltd']"
255,"['pepsico', 'pepsico food']"
256,"['itoen', 'vifon', 'ribon']"
257,"['yến việt', 'kino vietnam']"
258,"['pepsico', 'pepsico food']"
259,"['pepsico', 'pepsico food']"
260,['sanpellgrino']
261,['sanpellgrino']
262,['krating daeng']
263,['evian volvic source']
264,"[""societe anonyme des eaux minerales d'evian""]"
265,"[""societe anonyme des eaux minerales d'evian""]"
266,"['công ty tnhh quảng thái', 'công ty tnhh an ti', 'công ty tnhh yaho']"
267,"['công ty tnhh quảng thái', 'công ty tnhh an ti', 'công ty tnhh yaho']"
268,"['công ty tnhh sx tm phúc long', 'công ty tnhh sx tm dv kiện năng', 'công ty tnhh dv tm phan thị']"
269,"['công ty tnhh sx tm phúc long', 'công ty tnhh sx tm dv kiện năng', 'công ty tnhh dv tm phan thị']"
270,['federal oat milk']
271,['federal oat milk']
272,"['aceites agro sevilla, s.a.u']"
273,['barilla g.e r. fratelli societa per azioni']
274,['barilla g.e r. fratelli societa per azioni']
275,"['công ty tnhh thực phẩm asuzac', 'công ty tnhh thực phẩm sen việt', 'công ty tnhh thực phẩm bông mai']"
276,"['công ty tnhh thực phẩm asuzac', 'công ty tnhh thực phẩm sen việt', 'công ty tnhh thực phẩm bông mai']"
277,"['vifon', 'ribon', 'orion']"
278,"['công ty tnhh công nghệ thực phẩm châu á', 'công ty tnhh công nghệ thực phẩm miko', 'công ty tnhh thực phẩm asuzac']"
279,"['công ty tnhh công nghệ thực phẩm châu á', 'công ty tnhh công nghệ thực phẩm miko', 'công ty tnhh thực phẩm asuzac']"
280,"['công ty tnhh công nghệ thực phẩm châu á', 'công ty tnhh công nghệ thực phẩm miko', 'công ty tnhh thực phẩm asuzac']"
281,[]
282,[]
283,[]
284,"['nongshim food co.,ltd', 'hanil food co.,ltd', 'gaemi food co.,ltd']"
285,"['nissin foods group', 'itsuki foods']"
286,"['samyang food co.,ltd', 'hanil food co.,ltd', 'sempio food co.,ltd']"
287,['decent noodle factory']
288,['decent noodle factory']
289,"['nissin foods group', 'itsuki foods']"
290,"['nissin foods group', 'itsuki foods']"
291,['công ty cplttp colusa-miliket']
292,"['thai president foods', 'uni president', 'thai victor food']"
293,"['thai president foods', 'uni president', 'thai victor food']"
294,"['masan', 'mayan', '3m japan']"
295,['acecook']
296,"['masan', 'mayan', '3m japan']"
297,"['thai president foods', 'uni president', 'thai victor food']"
298,"['masan', 'mayan', '3m japan']"
299,"['nissin foods group', 'itsuki foods']"
300,"['nissin foods group', 'itsuki foods']"
301,"['nissin foods group', 'itsuki foods']"
302,['acecook']
303,['acecook']
304,['công ty cp chăn nuôi c.p. việt nam – chi nhánh 3 tại thành phố hồ chí minh']
305,['công ty cp chăn nuôi c.p. việt nam – chi nhánh 3 tại thành phố hồ chí minh']
306,['công ty cp chăn nuôi c.p. việt nam – chi nhánh 3 tại thành phố hồ chí minh']
307,['công ty cp chăn nuôi c.p. việt nam – chi nhánh 3 tại thành phố hồ chí minh']
308,['công ty cp chăn nuôi c.p. việt nam – chi nhánh 3 tại thành phố hồ chí minh']
309,['công ty cptp lâm đồng']
310,['công ty cptp lâm đồng']
311,['công ty cptp lâm đồng']
312,['công ty cptp lâm đồng']
313,['công ty cptp lâm đồng']
314,['vina punti ferrer ltda']
315,['vina punti ferrer ltda']
316,['vina punti ferrer ltda']
317,['lescaves de landiras']
318,"['distell', 'distill']"
319,['lescaves de landiras']
320,"['casella wines', 'dalat wine', 'constellation wine u.s']"
321,['vina punti ferrer ltda']
322,['vignerons ardechois']
323,"['bodegas trapiche', 'bodegas trapiche']"
324,"['bodegas trapiche', 'bodegas trapiche']"
325,"['wolf blass wines', 'wolf blass wines']"
326,"['vina errazuriz s.a', 'vina errazuriz s.a']"
327,['vins descombe']
328,['vins descombe']
329,['vina carmen']
330,['vignerons ardechois']
331,['vins descombe']
332,"['wolf blass wines', 'wolf blass wines']"
333,"['casella wines', 'dalat wine', 'constellation wine u.s']"
334,"['công ty cổ phần thực phẩm quốc tế', 'công ty cổ phần thực phẩm cholimex', 'công ty cổ phần thực phẩm á châu']"
335,"['pepsico', 'pepsico food']"
336,"['vital', 'visalco', 'vinamilk']"
337,"['vital', 'visalco', 'vinamilk']"
338,"['vital', 'visalco', 'vinamilk']"
339,"['thai corp', 'thai victor food']"
340,['united dutch breweries']
341,['cty cp phú thái tp. hồ chí minh']
342,['independent distellier  pty']
343,['independent distellier  pty']
344,"['hite jinro ,.co.ltd', 'shiseido co., ltd']"
345,['bitburger braugruppe']
346,['brown forman']
347,"['công ty tnhh sx tm phúc long', 'công ty tnhh sx tm dv kiện năng', 'công ty tnhh dv tm phan thị']"
348,['coca-cola']
349,"['cty tnhh bia & ngk heineken viet nam', 'cty tnhh cgp viet nam', 'cty tnhh wrigley việt nam']"
350,"['cty tnhh bia & ngk heineken viet nam', 'cty tnhh cgp viet nam', 'cty tnhh wrigley việt nam']"
351,['wilmart']
352,['bia sài gòn']
353,['bia sài gòn']
354,['bia sài gòn']
355,['sapporo']
356,['sapporo']
357,['sapporo']
358,"['vinamilk', 'vital']"
359,"['vinamilk', 'vital']"
360,"['vinamilk', 'vital']"
361,"['vinamilk', 'vital']"
362,['aik cheong']
363,['aik cheong']
364,"['philip morris international', 'chemcorp international', 'lactalis international']"
365,"['philip morris international', 'chemcorp international', 'lactalis international']"
366,"['philip morris international', 'chemcorp international', 'lactalis international']"
367,"['philip morris international', 'chemcorp international', 'lactalis international']"
368,"['philip morris international', 'chemcorp international', 'lactalis international']"
369,"['philip morris international', 'chemcorp international', 'lactalis international']"
370,"['philip morris international', 'chemcorp international', 'lactalis international']"
371,"['cty tnhh tm - dv quý thị', 'công ty tnhh quảng thái', 'cty tnhh truyen thong na']"
372,"['cty tnhh tm - dv quý thị', 'công ty tnhh quảng thái', 'cty tnhh truyen thong na']"
373,"['cty tnhh tm - dv quý thị', 'công ty tnhh quảng thái', 'cty tnhh truyen thong na']"
374,"['vinamilk', 'vital']"
375,"['vinamilk', 'vital']"
376,['anheuser-busch inbev']
377,"['công ty cp thực phẩm vĩnh thành đạt', 'công ty cp chuỗi thực phẩm th', 'công ty cổ phần quỳnh anh']"
378,"['công ty cp thực phẩm vĩnh thành đạt', 'công ty cp chuỗi thực phẩm th', 'công ty cổ phần quỳnh anh']"
379,"['công ty tnhh công nghệ thực phẩm miko', 'công ty tnhh công nghệ thực phẩm châu á', 'công ty tnhh thực phẩm bông mai']"
380,"['công ty tnhh quốc tế unilever việt nam', 'công ty tnhh quốc tế nhật việt anh', 'công ty tnhh fumakilla việt nam']"
381,"['công ty tnhh quốc tế unilever việt nam', 'công ty tnhh quốc tế nhật việt anh', 'công ty tnhh fumakilla việt nam']"
382,"['công ty tnhh quốc tế unilever việt nam', 'công ty tnhh quốc tế nhật việt anh', 'công ty tnhh fumakilla việt nam']"
383,['mjf']
384,['mjf']
385,"['công ty tnhh quốc tế cao nguyên xanh', 'công ty tnhh quốc tế nhật việt anh', 'công ty tnhh xương rồng xanh']"
386,"['nokchawon co,ltd', 'hae do won co.,ltd', 'konkuk co.,ltd']"
387,"['công ty tnhh sx tm phúc long', 'công ty tnhh sx tm dv kiện năng', 'công ty tnhh dv tm phan thị']"
388,"['masan', 'mayan', '3m japan']"
389,"['công ty tnhh quốc tế nhật việt anh', 'công ty tnhh quốc tế unilever việt nam', 'công ty tnhh mtv đầu tư thái anh']"
390,['công ty siam tea  factory']
391,"['blue ocean food and drinks co., ltd.', 'korea food trading co., ltd']"
392,"['công ty tnhh khỏe đẹp', 'công ty tnhh yaho', 'công ty tnhh koyu & unitek']"
393,['arizona beverages usa']
394,"['công ty tnhh quốc tế nhật việt anh', 'công ty tnhh quốc tế unilever việt nam', 'công ty tnhh mtv đầu tư thái anh']"
395,"['cn công ty tnhh tâm châu (tỉnh lâm đồng)', 'công ty tnhh sx tm phúc long']"
396,"['cn công ty tnhh tâm châu (tỉnh lâm đồng)', 'công ty tnhh sx tm phúc long']"
397,"['pepsico', 'pepsico food']"
398,['nestlé']
399,['công ty cp cà phê hello 5']
400,['công ty cp cà phê hello 5']
